Longitudinal 2024 - bends
…
personality.s <- personality %>% 
  group_by(mapid) %>% 
  tally() %>% 
   filter(n >=2) 

 personality <- personality %>% 
   filter(mapid %in% personality.s$mapid)

personality <- personality %>% 
  select(-neodate)
 
personality

# A tibble: 1,636 × 10
# Groups:   mapid [620]
   mapid   age neuroticism extraversion openness agreeablness conscientiousness
   <int> <int>       <int>        <int>    <int>        <int>             <int>
 1 64228    72          12           32       35           37                34
 2 62688    78          12           35       26           26                34
 3 10038    79          13           33       19           33                37
 4 62689    67          19           17       34           34                24
 5 61654    84          26           28       26           28                32
 6 12445    90          14           30       18           37                33
 7 61639    77          17           35       19           35                30
 8 60906    73           7           38       35           31                38
 9 61637    73          20           23       25           33                29
10 61225    76           4           42       21           37                37
# ℹ 1,626 more rows
# ℹ 3 more variables: gender <chr>, wave <dbl>, year <drtn>
…
SEM poly example

Code

#use alcohol data from before
alcohol <- read.csv("https://raw.githubusercontent.com/josh-jackson/longitudinal-2022/main/alcohol1_pp.csv")

alcohol.wide <- alcohol %>% 
  dplyr::select(-X, -age_14, -ccoa) %>% 
  pivot_wider(names_from = "age", 
              names_prefix = "alcuse_",
              values_from  = alcuse) 
alcohol.wide

# A tibble: 82 × 8
      id   coa  male  peer  cpeer alcuse_14 alcuse_15 alcuse_16
   <int> <int> <int> <dbl>  <dbl>     <dbl>     <dbl>     <dbl>
 1     1     1     0 1.26   0.247      1.73      2         2   
 2     2     1     1 0.894 -0.124      0         0         1   
 3     3     1     1 0.894 -0.124      1         2         3.32
 4     4     1     1 1.79   0.771      0         2         1.73
 5     5     1     0 0.894 -0.124      0         0         0   
 6     6     1     1 1.55   0.531      3         3         3.16
 7     7     1     0 1.55   0.531      1.73      2.45      1   
 8     8     1     1 0     -1.02       0         0         0   
 9     9     1     1 0     -1.02       0         1         3.46
10    10     1     0 2      0.982      1         1         1   
# ℹ 72 more rows
…
Code

personality2 <- read.csv("https://raw.githubusercontent.com/josh-jackson/longitudinal-2022/main/Subject_personality.csv")

p.wide<- personality2 %>% 
  group_by(mapid) %>%
  arrange(neodate) %>% 
  dplyr::mutate(wave = seq_len(n())) %>% 
  select(-c(age:neuroticism), -c(openness:gender)) %>% 
  pivot_wider(names_from = "wave", values_from = "extraversion",names_prefix = "extra_")

p.wide

# A tibble: 1,090 × 6
# Groups:   mapid [1,090]
   mapid extra_1 extra_2 extra_3 extra_4 extra_5
   <int>   <int>   <int>   <int>   <int>   <int>
 1 64228      32      34      NA      NA      NA
 2 62688      35      31      35      29      30
 3 62685      28      NA      NA      NA      NA
 4 10038      33      28      NA      NA      NA
 5 62689      17      18      15      NA      NA
 6 61654      28      26      NA      NA      NA
 7 12445      30      32      NA      NA      NA
 8 61639      35      27      30      NA      NA
 9 60906      38      40      32      41      NA
10 61637      23      28      28      14      20
# ℹ 1,080 more rows
…
Code

dogs <-
  dogs %>% 
  pivot_longer(-dog, values_to = "y") %>% 
  mutate(trial = str_remove(name, "t") %>% as.double()) 
dogs

# A tibble: 750 × 4
     dog name      y trial
   <int> <chr> <int> <dbl>
 1    13 t0        1     0
 2    13 t1        1     1
 3    13 t2        0     2
 4    13 t3        1     3
 5    13 t4        0     4
 6    13 t5        1     5
 7    13 t6        0     6
 8    13 t7        0     7
 9    13 t8        0     8
10    13 t9        0     9
# ℹ 740 more rows
…
