Longitudinal 2024 - MLM
…
MLM review

\[{Y}_{i} = b_{0} + b_{1}X_{i} +  ... +\epsilon_{i}\]

\[{Y}_{ij} = b_{0} + b_{1}X_{ij} + ... +\epsilon_{ij}\] Where j refers to some clustering or grouping variable and i refers to the observations within j

Code

library(readr)
mlm <- read_csv("https://raw.githubusercontent.com/josh-jackson/longitudinal-2021/master/example.csv")
mlm 

# A tibble: 225 × 50
      ID group  time    CON CON_SAL CON_SMN7   DAN DAN_CON DAN_SAL DAN_SMN7
   <dbl> <chr> <dbl>  <dbl>   <dbl>    <dbl> <dbl>   <dbl>   <dbl>    <dbl>
 1     6 PD        4 0.193   0.0708   0.0088 0.162  0.116   0.0739   0.0041
 2     6 PD        5 0.195   0.0862   0.004  0.168  0.117   0.0812   0.0204
 3     6 PD        6 0.181   0.0916  -0.0037 0.215  0.164   0.113    0.0155
 4    29 PD        4 0.159   0.0438  -0.0253 0.175  0.0161  0.0621   0.0121
 5    29 PD        5 0.0881  0.0446  -0.0288 0.136  0.0377  0.0277   0.0444
 6    34 CTRL      4 0.137   0.0113  -0.0792 0.166  0.0045 -0.0075   0.0432
 7    34 CTRL      6 0.0746  0.0009  -0.0089 0.140  0.0635 -0.024    0.0483
 8    36 CTRL      1 0.139   0.0438  -0.0466 0.152  0.0279  0.0137   0.0513
 9    36 CTRL      4 0.180   0.0772  -0.0648 0.205 -0.0116 -0.0477   0.0415
10    37 PD        3 0.226   0.0412  -0.0565 0.219  0.0971  0.0195   0.0644
# ℹ 215 more rows
# ℹ 40 more variables: DMN6 <dbl>, DMN6_CON <dbl>, DMN6_DAN <dbl>,
#   DMN6_SAL <dbl>, DMN6_SMN7 <dbl>, SAL <dbl>, SAL_SMN7 <dbl>, SMN7 <dbl>,
#   wave <dbl>, date <date>, Exclude <chr>, RSNdata <dbl>, RSNexclude <chr>,
#   RSNexcludeDevDem <chr>, CogDate_0 <date>, CCIRtrio_MR_date_0 <date>,
#   Dur_PDsx_0 <dbl>, PIBpos18 <chr>, Neuro_Dx <chr>, NeuroCDR_0 <chr>,
#   NeuroCDR_1 <chr>, NeuroCDR_2 <chr>, NeuroCDR_3 <chr>, NeuroCDR_4 <chr>, …
…
(Intercept) 
   4.760256 

Residuals

To get residuals and fitted scores

Code

library(broom.mixed)
example.aug<- augment(mod.1, data = b5_long)

example.aug

# A tibble: 22,081 × 21
   Procedural__SID year    DOB   Sex     A     C     E     N     O ID    .fitted
             <dbl> <chr> <dbl> <dbl> <dbl> <dbl> <dbl> <dbl> <dbl> <fct>   <dbl>
 1             901 2005   1951     2  4.67  5     5     4     4    901      4.90
 2             901 2009   1951     2  4.33  5     5     4.67  4    901      4.90
 3             901 2013   1951     2  4.67  5     5     4.33  3.33 901      4.90
 4            2301 2005   1946     1  5.67  5.67  5     4.33  4.33 2301     5.09
 5            2301 2009   1946     1  5.67  5     4     5.33  5    2301     5.09
 6            2301 2013   1946     1  4.67  5.33  5.33  3.67  5    2301     5.09
 7            2302 2005   1946     2  4.67  4.67  4.67  3.67  5    2302     5.03
 8            2302 2009   1946     2  4     6     5.33  3     4.33 2302     5.03
 9            2302 2013   1946     2  3.33  5     4.67  3     5.67 2302     5.03
10            4701 2005   1919     2  4     4.33  4.67  3.67  3    4701     4.72
# ℹ 22,071 more rows
# ℹ 10 more variables: .resid <dbl>, .hat <dbl>, .cooksd <dbl>, .fixed <dbl>,
#   .mu <dbl>, .offset <dbl>, .sqrtXwt <dbl>, .sqrtrwt <dbl>, .weights <dbl>,
#   .wtres <dbl>
…
b5_long %>% 
  data_grid(year.c = seq_range(year.c, n = 10), .model = b5_long)

# A tibble: 49,680 × 10
   year.c  year   DOB   Sex     A     C     E     N     O ID     
    <dbl> <dbl> <dbl> <dbl> <dbl> <dbl> <dbl> <dbl> <dbl> <chr>  
 1      0  2009  1958     2  4.67  4.67     5  4.33  4.33 100001 
 2      0  2009  1958     2  4.67  4.67     5  4.33  4.33 1000202
 3      0  2009  1958     2  4.67  4.67     5  4.33  4.33 1000402
 4      0  2009  1958     2  4.67  4.67     5  4.33  4.33 1000902
 5      0  2009  1958     2  4.67  4.67     5  4.33  4.33 1003602
 6      0  2009  1958     2  4.67  4.67     5  4.33  4.33 1003702
 7      0  2009  1958     2  4.67  4.67     5  4.33  4.33 1003703
 8      0  2009  1958     2  4.67  4.67     5  4.33  4.33 1004202
 9      0  2009  1958     2  4.67  4.67     5  4.33  4.33 1006102
10      0  2009  1958     2  4.67  4.67     5  4.33  4.33 1007602
# ℹ 49,670 more rows
…
